pass-o0
fail-o1
fail-o10
pass-o11
pass-o12
fail-o13
pass-o14
pass-o15
fail-o16
pass-o17
pass-o18
pass-o19
pass-o2
pass-o20
pass-o21
fail-o22
pass-o23
pass-o24
pass-o3
pass-o4
fail-o5
fail-o6
fail-o7
pass-o8
fail-o9
