pass-o0
pass-o1
pass-o10
pass-o11
pass-o12
pass-o13
pass-o14
pass-o15
pass-o16
pass-o17
pass-o18
fail-o19
fail-o2
fail-o20
pass-o21
pass-o22
fail-o23
fail-o24
fail-o25
fail-o26
pass-o3
pass-o4
pass-o5
fail-o6
fail-o7
pass-o8
pass-o9
