pass-o0
fail-o1
pass-o10
pass-o11
pass-o12
pass-o13
pass-o14
pass-o15
pass-o16
pass-o17
pass-o18
pass-o19
fail-o2
pass-o20
pass-o21
pass-o22
pass-o23
pass-o24
pass-o25
pass-o26
pass-o27
pass-o28
fail-o29
fail-o3
fail-o30
fail-o31
fail-o32
pass-o33
pass-o34
pass-o35
pass-o36
fail-o37
fail-o38
fail-o39
fail-o4
fail-o40
pass-o41
pass-o42
pass-o43
pass-o44
fail-o5
fail-o6
pass-o7
fail-o8
fail-o9
