fail-o0
fail-o1
fail-o10
fail-o11
fail-o12
fail-o13
fail-o14
fail-o15
fail-o16
fail-o17
fail-o18
fail-o19
fail-o2
fail-o20
fail-o21
fail-o22
fail-o23
fail-o24
fail-o25
fail-o26
fail-o27
fail-o28
fail-o29
fail-o3
fail-o30
fail-o31
fail-o32
fail-o33
fail-o34
fail-o35
fail-o36
fail-o37
fail-o38
fail-o39
fail-o4
fail-o40
fail-o41
fail-o42
fail-o43
fail-o44
fail-o5
fail-o6
fail-o7
fail-o8
fail-o9
