pass-o0
fail-o1
fail-o10
fail-o11
fail-o12
fail-o13
fail-o14
pass-o15
fail-o16
fail-o17
fail-o18
fail-o19
fail-o2
pass-o20
fail-o21
fail-o22
pass-o23
pass-o24
pass-o3
pass-o4
pass-o5
fail-o6
pass-o7
fail-o8
fail-o9
