pass-o0
fail-o1
fail-o10
pass-o11
fail-o12
fail-o13
pass-o14
pass-o15
fail-o16
pass-o17
fail-o18
fail-o19
pass-o2
pass-o20
fail-o21
pass-o22
pass-o23
pass-o24
fail-o3
fail-o4
pass-o5
fail-o6
pass-o7
fail-o8
fail-o9
