pass-o0
pass-o1
fail-o10
fail-o11
pass-o12
fail-o13
pass-o14
pass-o15
fail-o16
fail-o17
fail-o18
fail-o19
pass-o2
pass-o20
pass-o21
pass-o22
fail-o23
pass-o24
pass-o3
pass-o4
pass-o5
pass-o6
pass-o7
fail-o8
fail-o9
