pass-o0
fail-o1
pass-o10
fail-o11
pass-o12
pass-o13
pass-o14
pass-o15
pass-o16
pass-o17
pass-o18
fail-o19
fail-o2
pass-o20
fail-o21
fail-o22
fail-o23
fail-o24
fail-o25
pass-o26
pass-o27
pass-o28
pass-o29
fail-o3
pass-o30
pass-o31
fail-o4
fail-o5
pass-o6
fail-o7
fail-o8
fail-o9
