pass-o0
pass-o1
fail-o10
pass-o11
pass-o12
fail-o13
pass-o14
pass-o15
pass-o16
fail-o17
fail-o18
pass-o19
pass-o2
pass-o20
fail-o21
pass-o22
pass-o23
pass-o24
fail-o3
fail-o4
fail-o5
fail-o6
pass-o7
pass-o8
fail-o9
