pass-o0
fail-o1
pass-o10
fail-o11
pass-o12
pass-o13
pass-o14
pass-o15
pass-o16
pass-o17
pass-o18
fail-o19
fail-o2
pass-o20
fail-o21
fail-o22
fail-o23
fail-o24
fail-o25
fail-o26
fail-o27
fail-o28
fail-o29
fail-o3
fail-o30
fail-o31
fail-o4
fail-o5
pass-o6
fail-o7
fail-o8
fail-o9
