pass-o0
pass-o1
pass-o10
pass-o11
pass-o12
pass-o13
pass-o14
pass-o15
pass-o16
pass-o17
pass-o18
pass-o19
pass-o2
pass-o20
pass-o21
pass-o22
pass-o23
pass-o24
pass-o25
pass-o26
pass-o27
pass-o28
pass-o29
pass-o3
pass-o30
pass-o31
pass-o32
pass-o33
pass-o34
pass-o35
pass-o36
pass-o37
pass-o38
fail-o39
pass-o4
fail-o40
pass-o41
pass-o42
pass-o43
pass-o44
pass-o5
pass-o6
pass-o7
pass-o8
pass-o9
