fail-o0
fail-o1
pass-o10
fail-o11
pass-o12
fail-o13
fail-o14
pass-o15
pass-o16
fail-o17
pass-o18
pass-o19
fail-o2
pass-o20
pass-o21
pass-o22
fail-o23
fail-o24
fail-o25
pass-o26
pass-o27
pass-o28
pass-o29
fail-o3
pass-o30
pass-o31
fail-o4
fail-o5
fail-o6
fail-o7
fail-o8
pass-o9
