pass-o0
pass-o1
pass-o10
pass-o11
pass-o12
fail-o13
pass-o14
pass-o15
pass-o16
pass-o17
pass-o18
pass-o19
pass-o2
pass-o20
pass-o21
fail-o22
fail-o23
fail-o24
fail-o25
pass-o26
pass-o27
pass-o28
pass-o29
fail-o3
pass-o30
pass-o31
pass-o4
fail-o5
pass-o6
fail-o7
fail-o8
fail-o9
