fail-o0
fail-o1
pass-o10
pass-o11
fail-o12
fail-o13
pass-o14
fail-o15
fail-o16
fail-o17
fail-o18
fail-o19
pass-o2
fail-o20
fail-o21
fail-o22
fail-o23
fail-o24
fail-o25
fail-o26
fail-o27
fail-o28
fail-o29
pass-o3
fail-o30
fail-o31
pass-o4
fail-o5
fail-o6
fail-o7
fail-o8
fail-o9
