pass-o0
pass-o1
pass-o10
pass-o11
pass-o12
fail-o13
pass-o14
pass-o15
pass-o16
pass-o17
fail-o18
fail-o19
pass-o2
fail-o20
fail-o21
fail-o22
fail-o23
fail-o24
pass-o25
pass-o26
pass-o27
pass-o28
pass-o29
pass-o3
pass-o30
pass-o31
pass-o4
pass-o5
pass-o6
pass-o7
pass-o8
fail-o9
