pass-o0
fail-o1
pass-o10
pass-o11
pass-o12
fail-o13
pass-o14
fail-o15
pass-o16
pass-o17
pass-o18
fail-o19
fail-o2
pass-o20
fail-o21
pass-o22
fail-o23
fail-o24
fail-o25
fail-o26
pass-o3
pass-o4
pass-o5
pass-o6
pass-o7
fail-o8
fail-o9
