pass-o0
fail-o1
fail-o10
pass-o11
pass-o12
fail-o13
pass-o14
pass-o15
pass-o16
pass-o17
pass-o18
pass-o19
pass-o2
fail-o20
fail-o21
pass-o22
pass-o23
pass-o24
pass-o3
pass-o4
pass-o5
pass-o6
pass-o7
fail-o8
fail-o9
