pass-o0
fail-o1
fail-o10
fail-o11
fail-o12
fail-o13
fail-o14
fail-o15
fail-o16
fail-o17
fail-o18
fail-o19
fail-o2
fail-o20
fail-o21
fail-o22
fail-o23
fail-o24
fail-o3
fail-o4
fail-o5
fail-o6
pass-o7
pass-o8
fail-o9
