pass-o0
pass-o1
pass-o10
pass-o11
pass-o12
pass-o13
pass-o14
pass-o15
pass-o16
fail-o17
fail-o18
pass-o19
fail-o2
fail-o20
pass-o21
fail-o22
pass-o23
pass-o24
fail-o25
fail-o26
fail-o27
fail-o28
fail-o29
fail-o3
fail-o30
fail-o31
pass-o4
fail-o5
pass-o6
fail-o7
fail-o8
fail-o9
