pass-o0
pass-o1
fail-o10
fail-o11
fail-o12
fail-o13
fail-o14
fail-o15
fail-o16
fail-o17
fail-o18
fail-o19
pass-o2
fail-o20
fail-o21
fail-o22
fail-o23
fail-o24
fail-o25
pass-o26
pass-o27
pass-o28
pass-o29
pass-o3
pass-o30
pass-o31
pass-o32
fail-o33
fail-o34
fail-o35
fail-o36
fail-o37
fail-o38
fail-o39
pass-o4
fail-o40
pass-o41
fail-o42
fail-o43
fail-o44
pass-o5
pass-o6
pass-o7
fail-o8
fail-o9
