pass-o0
pass-o1
pass-o10
fail-o11
pass-o12
fail-o13
fail-o14
pass-o15
fail-o16
fail-o17
fail-o18
fail-o19
fail-o2
pass-o20
fail-o21
pass-o22
fail-o23
fail-o24
fail-o25
fail-o26
pass-o3
fail-o4
fail-o5
fail-o6
pass-o7
fail-o8
fail-o9
