pass-o0
pass-o1
pass-o10
fail-o11
pass-o12
pass-o13
pass-o14
pass-o15
fail-o16
fail-o17
fail-o18
fail-o19
pass-o2
pass-o20
fail-o21
pass-o22
pass-o23
pass-o24
fail-o3
fail-o4
fail-o5
fail-o6
pass-o7
pass-o8
fail-o9
