pass-o0
fail-o1
fail-o10
pass-o11
pass-o12
pass-o13
pass-o14
fail-o15
fail-o16
fail-o17
pass-o18
pass-o19
fail-o2
pass-o20
fail-o21
pass-o22
fail-o23
fail-o24
fail-o25
fail-o26
fail-o3
pass-o4
pass-o5
pass-o6
pass-o7
fail-o8
fail-o9
