pass-o0
fail-o1
fail-o10
fail-o11
pass-o12
pass-o13
fail-o14
pass-o15
pass-o16
fail-o17
pass-o18
pass-o19
fail-o2
fail-o20
pass-o21
fail-o22
fail-o23
fail-o24
fail-o25
fail-o26
pass-o27
pass-o28
pass-o29
fail-o3
pass-o30
pass-o31
pass-o32
pass-o33
pass-o34
fail-o35
fail-o36
fail-o37
fail-o38
fail-o39
fail-o4
fail-o40
pass-o41
pass-o42
fail-o43
pass-o44
fail-o5
fail-o6
pass-o7
pass-o8
pass-o9
